Tidy Movement Modeling with R - Reading Source data
…
In this situation, we want to just look at locations from the months of August, September, and October. For this, the month() function from the lubridate package provides a way for us to filter by month integer.

# query the data set to only include the months of August, 
# September, and October
akbs_ds %>% 
  filter(month(date) %in% c(8,9,10)) %>% 
  relocate(deploy_id) %>% 
  collect()

# A tibble: 17,597 × 18
   deploy_id      ptt instr date                type  quality latitude longitude
 * <chr>        <dbl> <chr> <dttm>              <chr> <chr>      <dbl>     <dbl>
 1 EB2009_3001… 74626 Mk10  2009-08-01 00:03:13 Fast… 9           70.8     -147.
 2 EB2009_3001… 74626 Mk10  2009-08-01 00:07:15 Argos B           70.8     -147.
 3 EB2009_3001… 74626 Mk10  2009-08-01 00:11:39 Argos B           70.8     -147.
 4 EB2009_3001… 74626 Mk10  2009-08-01 00:17:06 Argos A           70.8     -147.
 5 EB2009_3001… 74626 Mk10  2009-08-01 00:53:26 Argos B           70.8     -147.
 6 EB2009_3001… 74626 Mk10  2009-08-01 01:46:52 Argos A           70.8     -147.
 7 EB2009_3001… 74626 Mk10  2009-08-01 01:55:08 Argos A           70.8     -147.
 8 EB2009_3001… 74626 Mk10  2009-08-01 02:26:28 Argos B           70.8     -147.
 9 EB2009_3001… 74626 Mk10  2009-08-01 03:00:20 Argos A           70.8     -147.
10 EB2009_3001… 74626 Mk10  2009-08-01 03:28:49 Argos B           70.7     -147.
# … with 17,587 more rows, and 10 more variables: error_radius <dbl>,
#   error_semi_major_axis <dbl>, error_semi_minor_axis <dbl>,
#   error_ellipse_orientation <dbl>, offset <lgl>, offset_orientation <lgl>,
#   gpe_msd <lgl>, gpe_u <lgl>, count <lgl>, comment <chr>
…
library(sf)

akbs_locs <- sf::st_as_sf(akbs_locs, coords = c("longitude","latitude"),
                          crs = "epsg:4326")

akbs_locs %>% 
  dplyr::select(deploy_id, date, geometry)

Simple feature collection with 42047 features and 2 fields
Geometry type: POINT
Dimension:     XY
Bounding box:  xmin: -175.137 ymin: -15.7054 xmax: 170.878 ymax: 73.478
Geodetic CRS:  WGS 84
# A tibble: 42,047 × 3
# Groups:   deploy_id [6]
   deploy_id           date                           geometry
   <chr>               <dttm>                      <POINT [°]>
 1 EB2009_3000_06A1346 2009-06-23 00:00:00     (-162.42 66.38)
 2 EB2009_3000_06A1346 2009-06-23 02:41:12 (-162.5562 66.3168)
 3 EB2009_3000_06A1346 2009-06-23 03:07:11 (-162.4431 66.3656)
 4 EB2009_3000_06A1346 2009-06-23 04:08:10 (-162.3752 66.3216)
 5 EB2009_3000_06A1346 2009-06-23 04:15:36 (-162.3757 66.3222)
 6 EB2009_3000_06A1346 2009-06-23 04:27:12  (-162.3922 66.345)
 7 EB2009_3000_06A1346 2009-06-23 04:44:54 (-162.4411 66.3316)
 8 EB2009_3000_06A1346 2009-06-23 05:56:58 (-162.5032 66.3487)
 9 EB2009_3000_06A1346 2009-06-23 06:24:33 (-162.4993 66.3518)
10 EB2009_3000_06A1346 2009-06-23 07:35:42 (-162.4958 66.3583)
# … with 42,037 more rows
…
